{
    "@description": "${template.description}",
    "@group": "HeaderContent",
    "ecr:createDate": "2018-02-14T10:06:33.976-06:00",
    "@thumbnailUrl": "thumbnail.png",
    "ecr:type": "template",
    "locales": {},
    "typeInfo": {
        "contentPaths": {"@propertyType": "List"},
        "templateTypes": {"@propertyType": "List"},
        "templateIds": {"@propertyType": "List"},
        "ruleLimit": {"@propertyType": "String"}
    },
    "defaultContentItem": {
        "@name": "Header Content Slot",
        "ruleLimit": "1",
        "templateTypes": ["HeaderContent"],
        "templateIds": [],
        "contentPaths": []
    },
    "editorPanel": {
        "editor": "editors/DefaultEditorPanel",
        "children": [{"editor": "editors/DynamicSlotEditor"}]
    }
}