{
    "workflowNote": "",
    "workflowState": "ACTIVE",
    "ecr:lastModifiedBy": "admin",
    "ecr:lastModified": "2017-01-24T06:36:46.465-06:00",
    "startTime": "",
    "endTime": "",
    "priority": 10,
    "templateId": "ContentPage",
    "previewable": true,
    "ecr:createDate": "2016-06-21T11:19:11.623-05:00",
    "ecr:type": "content-item",
    "triggers": [{"exactLocation": false}],
    "contentItem": {
        "showSharePageButton": false,
        "@name": "Content Page",
        "showPrintPageButton": false,
        "pageDisplayName": "FAQ",
        "@type": "ContentPage",
        "title": "Frequently Asked Questions",
        "metaDescription": "Discover the types of services we offer, our delivery range and shipping methods, and our account and credit terms provided for clients throughout the Midwest. Please contact us directly with specific questions: 800-572-1904",
        "headerContent": [{
            "ruleLimit": "1",
            "@name": "Header Content Slot",
            "templateTypes": ["HeaderContent"],
            "templateIds": [],
            "@type": "ContentSlotHeader",
            "contentPaths": ["/content/Shared/Headers"]
        }],
        "breadcrumbs": {
            "@name": "Static Content Breadcrumbs",
            "parentDisplayTitle": "",
            "@type": "StaticContentBreadcrumbs",
            "parentPath": ""
        },
        "secondaryContent": [{
            "@name": "Sidebar Include JSP",
            "@type": "ContentPageSidebarIncludePage",
            "pagePath": "/content/pages/gadgets/faq-category-display.jsp"
        }],
        "mainContent": [{
            "@name": "FAQ Page Include",
            "@type": "ContentPageMainIncludePage",
            "pagePath": "/content/pages/faq.jsp"
        }],
        "footerContent": [{
            "ruleLimit": "1",
            "@name": "Footer Content Slot",
            "templateTypes": ["FooterContent"],
            "templateIds": [],
            "@type": "ContentSlotFooter",
            "contentPaths": ["/content/Shared/Footers"]
        }]
    }
}