{
    "@description": "${template.description}",
    "@group": "MainContent",
    "ecr:createDate": "2018-02-14T10:06:35.773-06:00",
    "@thumbnailUrl": "thumbnail.png",
    "ecr:type": "template",
    "locales": {},
    "typeInfo": {
        "boostStrata": {"@propertyType": "List"},
        "buryStrata": {"@propertyType": "List"},
        "sortOption": {"@propertyType": "Item"},
        "relRankStrategy": {"@propertyType": "String"},
        "recordsPerPage": {"@propertyType": "String"}
    },
    "defaultContentItem": {
        "buryStrata": [],
        "@name": "Results List",
        "boostStrata": [],
		"relRankMatchMode": "PARTIAL",
        "relRankStrategy": "nterms,maxfield,exact,static(product.analytics.conversion_rate,descending)",
        "recordsPerPage": "10",
        "sortOption": {
            "@class": "com.endeca.infront.navigation.model.SortOption",
            "label": "Most Sales",
            "sorts": [{
                "@class": "com.endeca.infront.navigation.model.SortSpec",
                "key": "product.analytics.total_sales",
                "descending": "false"
            }]
        }
    },
    "editorPanel": {
        "editor": "editors/DefaultEditorPanel",
        "children": [
            {
                "editor": "editors/NumericStepperEditor",
                "minValue": 10,
                "propertyName": "recordsPerPage",
                "maxValue": 100,
                "label": "${property.recordsPerPage.label}"
            },
            {
                "editor": "editors/BoostBuryRecordEditor",
                "buryProperty": "buryStrata",
                "propertyName": "boostStrata",
                "label": "${property.boostBury.label}"
            },
            {
                "editor": "GroupLabel",
                "label": "${group.searchResultSettings.label}"
            },
            {
                "editor": "editors/ChoiceEditor",
                "propertyName": "relRankStrategy",
                "label": "${property.relRankStrategy.label}",
                "choice": [
                    {
                        "label": "${property.relRankStrategy.marginBias.label}",
                        "value": "nterms,maxfield,exact,static(product.analytics.conversion_rate,descending)"
                    },
                    {
                        "label": "${property.relRankStrategy.inventoryBias.label}",
                        "value": "nterms,maxfield,exact,static(product.inventory.count,descending)"
                    },
                    {
                        "label": "${property.relRankStrategy.first.label}",
                        "value": "first"
                    },
                    {
                        "label": "${property.relRankStrategy.price.label}",
                        "value": "static(product.price)"
                    },
                    {
                        "label": "${property.relRankStrategy.frequency.label}",
                        "value": "freq"
                    }
                ]
            },
            {
                "editor": "GroupLabel",
                "label": "${group.navigationResultSettings.label}"
            },
            {
                "editor": "editors/SortEditor",
                "propertyName": "sortOption",
                "label": "${property.sortOption.label}",
                "SortOption": [
                    {
                        "@class": "com.endeca.infront.navigation.model.SortOption",
                        "label": "${property.sortOption.default.label}",
                        "sorts": []
                    },
                    {
                        "@class": "com.endeca.infront.navigation.model.SortOption",
                        "label": "${property.sortOption.sales.label}",
                        "sorts": [{
                            "@class": "com.endeca.infront.navigation.model.SortSpec",
                            "key": "product.analytics.total_sales",
                            "descending": "true"
                        }]
                    },
                    {
                        "@class": "com.endeca.infront.navigation.model.SortOption",
                        "label": "${property.sortOption.conversionRate.label}",
                        "sorts": [{
                            "@class": "com.endeca.infront.navigation.model.SortSpec",
                            "key": "product.analytics.conversion_rate",
                            "descending": "true"
                        }]
                    },
                    {
                        "@class": "com.endeca.infront.navigation.model.SortOption",
                        "label": "${property.sortOption.priceAscending.label}",
                        "sorts": [{
                            "@class": "com.endeca.infront.navigation.model.SortSpec",
                            "key": "product.price",
                            "descending": "false"
                        }]
                    },
                    {
                        "@class": "com.endeca.infront.navigation.model.SortOption",
                        "label": "${property.sortOption.priceDescending.label}",
                        "sorts": [{
                            "@class": "com.endeca.infront.navigation.model.SortSpec",
                            "key": "product.price",
                            "descending": "true"
                        }]
                    }
                ]
            }
        ]
    }
}