{
    "workflowNote": "",
    "workflowState": "ACTIVE",
    "ecr:lastModifiedBy": "admin",
    "ecr:lastModified": "2015-09-22T10:55:59.512-05:00",
    "startTime": "",
    "endTime": "",
    "priority": 10,
    "previewable": true,
    "ecr:createDate": "2016-06-21T11:19:11.517-05:00",
    "ecr:type": "content-item",
    "triggers": [{"exactLocation": false}],
    "contentItem": {
        "@name": "Full Width Page",
        "metaKeywords": "",
        "@type": "FullWidthPage",
        "title": "",
        "metaDescription": "",
        "headerContent": [{
            "ruleLimit": "1",
            "@name": "Header Content Slot",
            "templateTypes": ["HeaderContent"],
            "templateIds": [],
            "@type": "ContentSlotHeader",
            "contentPaths": ["/content/Shared/Headers"]
        }],
        "mainContent": [{
            "@name": "Rich Text",
            "@type": "MainHTML",
            "content": "<div class=\"container main-content\">\n<div class=\"row\">\n<h3>Affiliations<\/h3>\n<dl class=\"services\">\n\t<dt><a class=\"products\" target=\"_blank\" href=\"http://www.adhq.com/\">A-D - Affiliated Distributors<\/a><\/dt>\n    <dd class=\"product_image\"><a target=\"_blank\" href=\"http://www.adhq.com/\"><img src=\"/images/banners/affiliations/AD.jpg\" width=\"171\" height=\"45\" border=\"0\"alt=\"\" /><\/a><\/dd>\n    <dd class=\"clear\">&nbsp;<\/dd>\n<\/dl>\n<dl class=\"services\">\n\t<dt><a class=\"products\" target=\"_blank\" href=\"http://www.asa.net/\">ASA - American Supply Association<\/a><\/dt>\n    <dd class=\"product_image\"><a target=\"_blank\" href=\"http://www.asa.net/\"><img src=\"/images/banners/affiliations/american_supply.jpg\" width=\"171\" height=\"45\" border=\"0\"alt=\"\" /><\/a><\/dd>\n    <dd class=\"clear\">&nbsp;<\/dd>\n<\/dl>\n<dl class=\"services\">\n\t<dt><a class=\"products\" target=\"_blank\" href=\"http://www.aspe.org/\">ASPE - American Society of Plumbing Engineers<\/a><\/dt>\n    <dd class=\"product_image\"><a target=\"_blank\" href=\"http://www.aspe.org/\"><img src=\"/images/banners/affiliations/ASPE.jpg\" width=\"171\" height=\"45\" border=\"0\"alt=\"\" /><\/a><\/dd>\n    <dd class=\"clear\">&nbsp;<\/dd>\n<\/dl>\n<dl class=\"services\">\n\t<dt><a class=\"products\" target=\"_blank\" href=\"http://www.asse-plumbing.org/\">ASSE - American Society of Sanitary Engineers<\/a><\/dt>\n    <dd class=\"product_image\"><a target=\"_blank\" href=\"http://www.asse-plumbing.org/\"><img src=\"/images/banners/affiliations/ASSE.jpg\" width=\"171\" height=\"45\" border=\"0\"alt=\"\" /><\/a><\/dd>\n    <dd class=\"clear\">&nbsp;<\/dd>\n<\/dl>\n<dl class=\"services\">\n\t<dt><a class=\"products\" target=\"_blank\" href=\"http://www.cbhcc.org/\">CBHCC - Chicagoland Better Heating \u2013 Cooling Council<\/a><\/dt>\n    <dd class=\"product_image\"><a target=\"_blank\" href=\"http://www.cbhcc.org/\"><img src=\"/images/banners/affiliations/CBHCC.jpg\" width=\"171\" height=\"45\" border=\"0\"alt=\"\" /><\/a><\/dd>\n    <dd class=\"clear\">&nbsp;<\/dd>\n<\/dl>\n<dl class=\"services\">\n\t<dt><a class=\"products\" target=\"_blank\" href=\"http://www.mwda.net/\">MwDA - Midwest Distributors Association<\/a><\/dt>\n    <dd class=\"product_image\"><a target=\"_blank\" href=\"http://www.mwda.net/\"><img src=\"/images/banners/affiliations/MwDA.jpg\" width=\"171\" height=\"45\" border=\"0\"alt=\"\" /><\/a><\/dd>\n    <dd class=\"clear\">&nbsp;<\/dd>\n<\/dl>\n<dl class=\"services\">\n\t<dt><a class=\"products\" target=\"_blank\" href=\"http://www.naw.org/\">NAW - National Association of Wholesalers<\/a><\/dt>\n    <dd class=\"product_image\"><a target=\"_blank\" href=\"http://www.naw.org/\"><img src=\"/images/banners/affiliations/NAW.jpg\" width=\"171\" height=\"45\" border=\"0\"alt=\"\" /><\/a><\/dd>\n    <dd class=\"clear\">&nbsp;<\/dd>\n<\/dl>\n<dl class=\"services\">\n\t<dt><a class=\"products\" target=\"_blank\" href=\"http://www.nsc.org/\">NSC - National Safety Council<\/a><\/dt>\n    <dd class=\"product_image\"><div id=\"saftytip\"><script language=\"JavaScript\" src=\"http://www.nsc.org/syndy/weeklytip/safetytip.js\"><\/script><\/div><\/dd>\n    <dd class=\"clear\">&nbsp;<\/dd>\n<\/dl>\n<dl class=\"services\">\n\t<dt><a class=\"products\" target=\"_blank\" href=\"http://www.supplyforce.com/\">SF - SupplyForce<\/a><\/dt>\n    <dd class=\"product_image\"><a target=\"_blank\" href=\"http://www.supplyforce.com/\"><img src=\"/images/banners/affiliations/SUPPLY_FORCE.jpg\" width=\"171\" height=\"45\" border=\"0\"alt=\"\" /><\/a><\/dd>\n    <dd class=\"clear\">&nbsp;<\/dd>\n<\/dl>\n          <div style=\"clear:both\"><\/div>\n\n\n<\/div>\n<\/div>"
        }],
        "footerContent": [{
            "ruleLimit": "1",
            "@name": "Footer Content Slot",
            "templateTypes": ["FooterContent"],
            "templateIds": [],
            "@type": "ContentSlotFooter",
            "contentPaths": ["/content/Shared/Footers"]
        }]
    }
}