{
    "workflowNote": "",
    "userSegments": [],
    "workflowState": "ACTIVE",
    "ecr:lastModifiedBy": "JHarrell",
    "ecr:lastModified": "2018-02-20T16:21:47.100-06:00",
    "startTime": "",
    "endTime": "",
    "priority": 10,
    "templateId": "ContentPage",
    "previewable": true,
    "ecr:createDate": "2016-06-21T11:19:11.589-05:00",
    "ecr:type": "content-item",
    "triggers": [{"exactLocation": false}],
    "contentItem": {
        "showSharePageButton": true,
        "@name": "Content Page",
        "showPrintPageButton": true,
        "pageDisplayName": "Case Studies",
        "@type": "ContentPage",
        "title": "Case Studies",
        "metaDescription": "",
        "headerContent": [{
            "ruleLimit": "1",
            "@name": "Header Content Slot",
            "templateTypes": ["HeaderContent"],
            "templateIds": [],
            "@type": "ContentSlotHeader",
            "contentPaths": ["/content/Shared/Headers"]
        }],
        "breadcrumbs": {
            "@name": "Static Content Breadcrumbs",
            "parentDisplayTitle": "",
            "@type": "StaticContentBreadcrumbs",
            "parentPath": ""
        },
        "secondaryContent": [{
            "@name": "Sidebar Text",
            "@type": "ContentPageSidebarText",
            "content": "<div class=\"sidebar-menu\">\n                        <ul class=\"sidebar-nav\" id=\"collapseSidebar\" style=\"height: auto;\">\n                            <li><a href=\"/our-business\">Why Columbia<\/a><\/li>\n                            <li><a href=\"/locations/locations.jsp\">Locations<\/a><\/li>\n                            <li class=\"active\"><a href=\"#\">Case Studies<\/a><\/li>\n                            <li><a href=\"/testimonials\">Testimonials<\/a><\/li>\n                            <li><a href=\"/affiliations\">Affiliations<\/a><\/li>\n                            <li><a href=\"/regional-managers\">Regional Managers<\/a><\/li>\n                            <li><a href=\"/price-lists\">Price Lists<\/a><\/li>\n                        <\/ul>\n                    <\/div>"
        }],
        "mainContent": [{
            "@name": "Main Include JSP",
            "@type": "ContentPageMainIncludePage",
            "pagePath": "/content/pages/case-studies.jsp"
        }],
        "footerContent": [{
            "ruleLimit": "1",
            "@name": "Footer Content Slot",
            "templateTypes": ["FooterContent"],
            "templateIds": [],
            "@type": "ContentSlotFooter",
            "contentPaths": ["/content/Shared/Footers"]
        }]
    }
}