{
    "workflowNote": "",
    "userSegments": [],
    "workflowState": "ACTIVE",
    "ecr:lastModifiedBy": "JHarrell",
    "ecr:lastModified": "2018-02-20T13:55:05.356-06:00",
    "startTime": "",
    "endTime": "",
    "priority": 10,
    "templateId": "ContentPage",
    "ecr:createDate": "2018-01-25T07:08:28.828-06:00",
    "ecr:type": "content-item",
    "triggers": [{"exactLocation": false}],
    "contentItem": {
        "showSharePageButton": true,
        "@name": "Content Page",
        "showPrintPageButton": true,
        "pageDisplayName": "Did You Know",
        "@type": "ContentPage",
        "title": "Did You Know",
        "metaDescription": "Description for page Did You Know",
        "headerContent": [{
            "ruleLimit": "1",
            "@name": "Header Content Slot",
            "templateTypes": ["HeaderContent"],
            "templateIds": [],
            "@type": "ContentSlotHeader",
            "contentPaths": ["/content/Shared/Headers"]
        }],
        "breadcrumbs": {},
        "secondaryContent": [{
            "@name": "Sidebar Navigation",
            "@type": "ContentPageSidebarText",
            "content": "<div class=\"sidebar-menu\">\n                        <ul class=\"sidebar-nav\" id=\"collapseSidebar\" style=\"height: auto;\">\n                            <li><a href=\"#values\">Our Values<\/a><\/li>\n                            <li><a href=\"#products\">Our Products<\/a><\/li>\n                            <li><a href=\"#services\">Our Services<\/a><\/li>\n                            <li><a href=\"#technology\">Our Technology<\/a><\/li>\n                        <\/ul>\n<\/div>"
        }],
        "mainContent": [{
            "@name": "Main Text",
            "@type": "ContentPageMainText",
            "content": "<div class=\"row\">\n      <div class=\"col-xs-12\" style=\"padding-bottom: 50px;\">\n            <img class=\"img-responsive\" id=\"values\" style=\"padding-bottom: 30px;\" src=\"/assets/images/did-you-know/our-values-with-text.png\" alt=\"Our Values\">\n<p>Did you know that Columbia Pipe has proudly serviced customers since 1935?<\/p>\n<p>Did you know if you have a problem in the field, your Columbia Pipe account manager or one of our manufacturing partners will visit your job site to help?<\/p>\n<p>Did you know Columbia Pipe constantly reviews and grades suppliers to ensure our customers are getting not only quality product but also quality service?<\/p>\n<p>Did you know if you have a question on a specification or a difficult application, our expert sales staff can help you?<\/p>\n                            <\/div>\n      <div class=\"col-xs-12\" style=\"padding-bottom: 50px;\">\n            <img class=\"img-responsive\" id=\"products\" style=\"padding-bottom: 30px;\" src=\"/assets/images/did-you-know/our-product-with-text.png\" alt=\"Our Products\">\n<p>Did you know Columbia carries the only U.S. Manufacturer to produce both carbon steel weld fittings and flanges?<\/p>\n<p>Did you know stainless steel pipe, valves and fittings is one of Columbia Pipe's fastest-growing product groups?<\/p>\n<p>Did you know we offer product training and seminars at our facility, your facility, and at our suppliers' facilities?  Ask your Account Manager about Lunch and Learn and other programs we offer!<\/p>\n<p>Did you know we now stock Plumbing Pex?<\/p>          \n<p>Did you know we offer a wide variety of industry-best options for valves-including chain wheels, electric and pneumatic actuators and controls, limit switches, solenoid valves, gears and locking handles?<\/p>\n      <\/div>\n      <div class=\"col-xs-12\" style=\"padding-bottom: 50px;\">\n            <img class=\"img-responsive\" id=\"services\" style=\"padding-bottom: 30px;\" src=\"/assets/images/did-you-know/our-services-with-text.png\" alt=\"Our Services\">\n            <p>Did you know our CAPS division actuates plastic ball and butterfly valves as well as metal valves?<\/p>\n            <p>Did you know our Rolling Warehouse of trailers for on-site inventory and inventory replenishment will keep your job moving?<\/p>\n            <p>Did you know that we fabricate lined pipe spool pieces through 4\" pipe size in-house, PTFE or polypropylene?<\/p>\n<p>Did you know if you need steam trap audits and more importantly, complete energy audits, think of Columbia Pipe!<\/p> \n            <p>Did you know our $martStock solution streamlines Inventory Management?<\/p>\n      <\/div>\n      <div class=\"col-xs-12\">\n            <img class=\"img-responsive\" id=\"technology\" style=\"padding-bottom: 30px;\" src=\"/assets/images/did-you-know/our-technology-with-text.png\" alt=\"Our Technology\">\n<p>Did you know we use overhead magnetic cranes at many locations for safety, speed, and efficiency?<\/p>\n<p>Did you know Cert's, MTR's, and MRO's are available on our site?<\/p>\n<p>Did you know you can look up your new and old order history, invoices, packing lists and monthly statements online?<\/p>\n<p>Did you know Columbia Pipe's EDI-Electronic Data Interchange-system can increase the speed and accuracy of order placement and reduce your paperwork?<\/p>\n<p>Did you know you can now create, import/upload and save material lists online?<\/p>  \n      <\/div>\n<\/div>"
        }],
        "footerContent": [{
            "ruleLimit": "1",
            "@name": "Footer Content Slot",
            "templateTypes": ["FooterContent"],
            "templateIds": [],
            "@type": "ContentSlotFooter",
            "contentPaths": ["/content/Shared/Footers"]
        }]
    }
}