{
    "@description": "${template.description}",
    "@group": "MainContent",
    "ecr:createDate": "2018-02-14T10:06:34.615-06:00",
    "@thumbnailUrl": "thumbnail.png",
    "ecr:type": "template",
    "locales": {},
    "typeInfo": {
        "promoCarousel": {
            "@propertyType": "ContentItemList",
            "@group": "PromoContent"
        },
        "promoBanners": {
            "@propertyType": "ContentItemList",
            "@group": "PromoContent"
        }
    },
    "defaultContentItem": {
        "@name": "Promotional Content",
        "promoBanners": [],
        "promoCarousel": []
    },
    "editorPanel": {
        "editor": "editors/DefaultEditorPanel",
        "children": []
    }
}