{
    "@description": "${template.description}",
    "@group": "SecondaryContent",
    "ecr:createDate": "2018-02-14T10:06:35.907-06:00",
    "@thumbnailUrl": "thumbnail.png",
    "ecr:type": "template",
    "locales": {},
    "typeInfo": {"targeter_full_path": {"@propertyType": "String"}},
    "defaultContentItem": {
        "@name": "HTML Block BCC",
        "targeter_full_path": ""
    },
    "editorPanel": {
        "editor": "editors/DefaultEditorPanel",
        "children": [{
            "editor": "editors/StringEditor",
            "propertyName": "targeter_full_path",
            "label": "Target Full Path"
        }]
    }
}