{
    "ecr:lastModifiedBy": "admin",
    "ecr:lastModified": "2016-06-04T13:51:06.812-05:00",
    "contentType": "Page",
    "ecr:createDate": "2016-06-21T11:19:11.557-05:00",
    "ecr:type": "content-collection-folder"
}