{
    "ecr:lastModifiedBy": "admin",
    "ecr:lastModified": "2016-06-04T13:51:06.975-05:00",
    "contentType": "Page",
    "ecr:createDate": "2016-06-21T11:19:11.869-05:00",
    "ecr:type": "page",
    "contentItem": {
        "ruleLimit": "1",
        "@name": "Dynamic Page Slot",
        "templateTypes": ["Page"],
        "templateIds": [],
        "@type": "PageSlot",
        "contentPaths": ["/content/Web/Detail Pages"]
    }
}