{
    "workflowNote": "",
    "workflowState": "ACTIVE",
    "ecr:lastModifiedBy": "admin",
    "ecr:lastModified": "2017-04-19T08:40:57.123-05:00",
    "startTime": "",
    "endTime": "",
    "priority": 10,
    "previewable": true,
    "ecr:createDate": "2016-06-21T11:19:11.461-05:00",
    "ecr:type": "content-item",
    "triggers": [{"exactLocation": false}],
    "contentItem": {
        "@name": "Zero Results",
        "@type": "ZeroResults",
        "noImgUrl": "https://espy.columbiapipe.com/webdata/CPSimages/no_image2_85x85.png",
        "content": "<p class=\"lead\">We cannot find products matching your criteria. Try browsing our product categories to help you find what you&#39;re looking for.<\/p>"
    }
}