{
    "ecr:lastModifiedBy": "admin",
    "ecr:lastModified": "2018-01-24T15:43:01.571Z",
    "contentType": "Page",
    "ecr:createDate": "2018-01-24T09:43:01.571-06:00",
    "ecr:type": "content-collection-folder"
}