{
    "workflowNote": "",
    "ecr:lastModifiedBy": "admin",
    "ecr:lastModified": "2018-01-24T15:43:01.544Z",
    "contentType": "Page",
    "ecr:createDate": "2018-01-24T09:43:01.544-06:00",
    "ecr:type": "page",
    "contentItem": {
        "ruleLimit": "1",
        "@name": "Dynamic Page Slot",
        "templateTypes": ["Page"],
        "templateIds": [],
        "@type": "PageSlot",
        "contentPaths": ["/content/Web/ContentPages/Case Studies Details/Midwest Utility Power Plant"]
    }
}