{
    "@description": "${template.description}",
    "@group": "StaticMainContent",
    "ecr:createDate": "2018-02-14T10:06:36.320-06:00",
    "@thumbnailUrl": "thumbnail.png",
    "ecr:type": "template",
    "locales": {},
    "typeInfo": {
        "description": {"@propertyType": "String"},
        "pdfLink": {"@propertyType": "String"},
        "previewImage": {"@propertyType": "String"}
    },
    "defaultContentItem": {
        "@name": "PDF Cartridge",
        "description": "",
        "pdfLink": "",
        "previewImage": ""
    },
    "editorPanel": {
        "editor": "editors/DefaultEditorPanel",
        "children": [
            {
                "editor": "GroupLabel",
                "label": "${group.contents.label}"
            },
            {
                "editor": "editors/StringEditor",
                "propertyName": "pdfLink",
                "label": "${property.link.label}",
                "enabled": true,
                "height": 72
            },
            {
                "editor": "editors/StringEditor",
                "propertyName": "previewImage",
                "label": "${property.image.label}",
                "enabled": true,
                "height": 72
            },
            {
                "editor": "editors/StringEditor",
                "propertyName": "description",
                "label": "${property.description.label}",
                "enabled": true,
                "height": 72
            }
        ]
    }
}