{
    "@description": "${template.description}",
    "@group": "Social",
    "ecr:createDate": "2018-02-14T10:06:34.232-06:00",
    "@thumbnailUrl": "thumbnail.png",
    "ecr:type": "template",
    "locales": {},
    "typeInfo": {
        "socialLink": {"@propertyType": "String"},
        "socialStyle": {"@propertyType": "String"},
        "target": {"@propertyType": "String"}
    },
    "defaultContentItem": {
        "socialStyle": "",
        "@name": "Footer Social",
        "socialLink": "",
        "target": "_blank"

    },
    "editorPanel": {
        "editor": "editors/DefaultEditorPanel",
        "children": [
            {
                "editor": "editors/StringEditor",
                "propertyName": "socialLink",
                "label": "Social link",
                "enabled": true
            },
            {
                "editor": "editors/StringEditor",
                "propertyName": "socialStyle",
                "label": "Social style",
                "enabled": true
            },
            {
                "editor": "editors/StringEditor",
                "propertyName": "target",
                "label": "Target",
                "enabled": true
            }
        ]
    }
}