{
    "@description": "${template.description}",
    "@group": "Page",
    "ecr:createDate": "2018-02-14T10:06:35.421-06:00",
    "@thumbnailUrl": "thumbnail.png",
    "ecr:type": "template",
    "locales": {},
    "typeInfo": {
        "title": {"@propertyType": "String"},
        "metaKeywords": {"@propertyType": "String"},
        "metaDescription": {"@propertyType": "String"},
        "siteHeader": {
            "@propertyType": "ContentItem",
            "@group": "HeaderContent"
        },
        "headerContent": {
            "@propertyType": "ContentItemList",
            "@group": "HeaderContent"
        },
        "secondaryContent": {
            "@propertyType": "ContentItemList",
            "@group": "SecondaryContent"
        },
        "mainContent": {
            "@propertyType": "ContentItemList",
            "@group": "MainContent"
        },
        "siteFooter": {
            "@propertyType": "ContentItem",
            "@group": "FooterContent"
        },
        "isSearchPage": {"@propertyType": "Boolean"}
    },
    "defaultContentItem": {
        "isSearchPage": false,
        "headerContent": [],
        "@name": "Two One Column",
        "metaKeywords": "",
        "mainContent": [],
        "secondaryContent": [],
        "title": "CPS",
        "metaDescription": "CPS offers ...",
        "siteHeader": {},
        "siteFooter": {}
    },
    "editorPanel": {
        "editor": "editors/DefaultEditorPanel",
        "children": [
            {
                "editor": "GroupLabel",
                "label": "${group.metadata.label}"
            },
            {
                "editor": "editors/StringEditor",
                "propertyName": "title",
                "label": "${property.title.label}",
                "enabled": true
            },
            {
                "editor": "editors/StringEditor",
                "propertyName": "metaKeywords",
                "label": "${property.metaKeywords.label}",
                "enabled": true,
                "height": 72
            },
            {
                "editor": "editors/StringEditor",
                "propertyName": "metaDescription",
                "label": "${property.metaDescription.label}",
                "enabled": true,
                "height": 72
            },
            {
                "editor": "editors/BooleanEditor",
                "propertyName": "isSearchPage",
                "label": "${property.issearchpage.label}",
                "enabled": true
            }
        ]
    }
}