{
    "@description": "${template.description}",
    "@group": "MainContent",
    "ecr:createDate": "2018-02-14T10:06:35.286-06:00",
    "@thumbnailUrl": "thumbnail.png",
    "ecr:type": "template",
    "locales": {},
    "typeInfo": {
        "media": {"@propertyType": "Item"},
        "imageAlt": {"@propertyType": "String"},
        "link": {"@propertyType": "Item"}
    },
    "defaultContentItem": {
        "@name": "Media Banner",
        "imageAlt": "",
        "media": {"@class": "com.endeca.infront.cartridge.model.MediaObject"},
        "link": {"@class": "com.endeca.infront.cartridge.model.LinkBuilder"}
    },
    "editorPanel": {
        "editor": "editors/DefaultEditorPanel",
        "children": [
            {
                "editor": "GroupLabel",
                "label": "${group.media.label}"
            },
            {
                "editor": "editors/MediaEditor",
                "propertyName": "media",
                "label": "${property.media.label}",
                "enabled": true
            },
            {
                "editor": "GroupLabel",
                "label": "${group.generalSettings.label}"
            },
            {
                "editor": "editors/StringEditor",
                "propertyName": "imageAlt",
                "label": "${property.imageAlt.label}",
                "enabled": true
            },
            {
                "editor": "GroupLabel",
                "label": "${group.linkSettings.label}"
            },
            {
                "editor": "editors/LinkBuilderEditor",
                "propertyName": "link",
                "label": "${property.link.label}",
                "enabled": true
            }
        ]
    }
}