{
    "@description": "${template.description}",
    "@group": "MainContent",
    "ecr:createDate": "2018-02-14T10:06:35.274-06:00",
    "@thumbnailUrl": "thumbnail.jpg",
    "ecr:type": "template",
    "locales": {},
    "typeInfo": {"content": {
        "@propertyType": "ContentItemList",
        "@group": "ManufacturerCarouselElement"
    }},
    "defaultContentItem": {
        "@name": "Manufacturer Carousel",
        "content": []
    },
    "editorPanel": {
        "editor": "editors/DefaultEditorPanel",
        "children": []
    }
}