{
    "workflowNote": "",
    "userSegments": [],
    "workflowState": "ACTIVE",
    "ecr:lastModifiedBy": "JHarrell",
    "ecr:lastModified": "2018-02-07T16:01:45.573-06:00",
    "startTime": "",
    "endTime": "",
    "priority": 10,
    "previewable": true,
    "ecr:createDate": "2016-06-21T11:19:11.552-05:00",
    "ecr:type": "content-item",
    "triggers": [{"exactLocation": false}],
    "contentItem": {
        "showSharePageButton": true,
        "@name": "Content Page",
        "showPrintPageButton": true,
        "pageDisplayName": "Amway",
        "@type": "ContentPage",
        "title": "Amway",
        "metaDescription": "",
        "headerContent": [{
            "ruleLimit": "1",
            "@name": "Header Content Slot",
            "templateTypes": ["HeaderContent"],
            "templateIds": [],
            "@type": "ContentSlotHeader",
            "contentPaths": ["/content/Shared/Headers"]
        }],
        "breadcrumbs": {
            "@name": "Static Content Breadcrumbs",
            "parentDisplayTitle": "Case Studies",
            "@type": "StaticContentBreadcrumbs",
            "parentPath": "/case-studies"
        },
        "secondaryContent": [{
            "@name": "Sidebar Text",
            "@type": "ContentPageSidebarText",
            "content": "<div class=\"sidebar-menu\">\n                        <ul class=\"sidebar-nav\" id=\"collapseSidebar\" style=\"height: auto;\">\n                            <li><a href=\"/video-library\">Video Library<\/a><\/li>\n                            <li><a href=\"/locations/locations.jsp\">Locations<\/a><\/li>\n                            <li><a href=\"/news-events\">News and Events<\/a><\/li>\n                            <li class=\"active\"><a href=\"/case-studies\">Case Studies<\/a><\/li>\n                            <li><a href=\"/testimonials\">Testimonials<\/a><\/li>\n                           <li><a href=\"/affiliations\">Affiliations<\/a><\/li>\n                            <li><a href=\"/regional-managers\">Regional Managers<\/a><\/li>\n                            <li><a href=\"/price-lists\">Price Lists<\/a><\/li>\n                        <\/ul>\n                    <\/div>"
        }],
        "mainContent": [{
            "@name": "Main Text",
            "@type": "ContentPageMainText",
            "content": "<div class=\"row\">\n                                <div class=\"col-xs-12\">\n                                    <article class=\"case-study-detail\">\n                                        <img class=\"img-responsive\" src=\"https://espy.columbiapipe.com/webdata/CPSimages/case-studies/Case_study_0008_Amway.jpg\" alt=\"\">\n                                        <h2>Problem<\/h2>\n                                        <p>A valued customer of Columbia Pipe, Amway, contacted us with an issue they were having with their current heaters.  The heaters were outdated, leaking and continuously in need of maintenance to keep them running. Realizing the cost of keeping the old heater running, Amway knew they had to find a solution quickly.<\/p>\n                                        <h2>Solution<\/h2>\n                                        <p>Realizing Columbia Pipe\u2019s extensive product and application knowledge and expertise, Amway called for help to tackle the issue. After reviewing all the required specs and possible solutions, Columbia Pipe outside salesman, Justin Anes, along with Amway personnel, decided that the Spirax Sarco RH-90 Redi-Heat was the best solution to fit their needs and requirements within budget.<\/p>\n                                        <h2>Value<\/h2>\n                                        <p>In addition to the immediate savings in maintenance on the old unit, we were able to supply a simplified variation of their previous heaters. The new Spirax unit eliminated complicated pneumatic controls, reduced the steam pressure significantly (100PSI to 15PSI), and cut\ndown the need for frequent upkeep.  Amway estimated that they would save nearly $3,000 a year with their new set-up.<\/p>\n                                    <\/article>\n                                <\/div>\n                            <\/div>"
        }],
        "footerContent": [{
            "ruleLimit": "1",
            "@name": "Footer Content Slot",
            "templateTypes": ["FooterContent"],
            "templateIds": [],
            "@type": "ContentSlotFooter",
            "contentPaths": ["/content/Shared/Footers"]
        }]
    }
}