{
    "workflowNote": "",
    "userSegments": [],
    "workflowState": "ACTIVE",
    "ecr:lastModifiedBy": "admin",
    "ecr:lastModified": "2018-01-30T09:36:08.496-06:00",
    "startTime": "",
    "endTime": "",
    "priority": 10,
    "templateId": "ContentPage",
    "previewable": true,
    "ecr:createDate": "2016-06-21T11:19:11.802-05:00",
    "ecr:type": "content-item",
    "triggers": [{"exactLocation": false}],
    "contentItem": {
        "showSharePageButton": true,
        "@name": "Content Page",
        "showPrintPageButton": true,
        "pageDisplayName": "Columbia Pipe Supplier Reviews\u2014Columbia Pipe & Supply Co.",
        "@type": "ContentPage",
        "title": "Supplier Reviews",
        "metaDescription": "",
        "headerContent": [{
            "ruleLimit": "1",
            "@name": "Header Content Slot",
            "templateTypes": ["HeaderContent"],
            "templateIds": [],
            "@type": "ContentSlotHeader",
            "contentPaths": ["/content/Shared/Headers"]
        }],
        "breadcrumbs": {
            "@name": "Static Content Breadcrumbs",
            "parentDisplayTitle": "",
            "@type": "StaticContentBreadcrumbs",
            "parentPath": ""
        },
        "secondaryContent": [{
            "@name": "Sidebar Text",
            "@type": "ContentPageSidebarText",
            "content": "<div class=\"sidebar-menu\">\n\t<ul class=\"sidebar-nav\">\n\t\t<li><a href=\"/services/AfterSalesService\"><span>After-Sales Service<\/span><\/a><\/li>\n\t\t<li><a href=\"/services/CAPS\"><span>CAPS™ Valve Automation<\/span><\/a><\/li>\n\t\t<li><a href=\"/services/ColumbiaExpress\"><span>Columbia Express&trade; Rapid Delivery<\/span><\/a><\/li>\n\t\t<li><a href=\"/services/CommercialPlan\"><span>Commercial Plan &amp; Specification<\/span><\/a><\/li>\n\t\t<li><a href=\"/services/ECommerce\"><span>Columbia Pipe E-Commerce<\/span><\/a><\/li>\n\t\t<li><a href=\"/services/InterBranchTransfer\"><span>Inter-Branch Transfer<\/span><\/a><\/li>\n\t\t<li><a href=\"/services/Kitting\"><span>Kitting<\/span><\/a><\/li>\n\t\t<li><a href=\"/services/Alliances\"><span>National & Regional Distribution Services<\/span><\/a><\/li>\n\t\t<li><a href=\"/services/ProductTraining\"><span>Product Training<\/span><\/a><\/li>\n\t\t<li><a href=\"/services/RollingWarehouse\"><span>Rolling Warehouse™<\/span><\/a><\/li>\n\t\t<li><a href=\"/services/SmartStock\"><span>$mart$tock&trade; Inventory Management<\/span><\/a><\/li>\n\t\t<li><a href=\"/services/Standardization\"><span>Product Standardization<\/span><\/a><\/li>\n\t\t<li><a href=\"/services/SupplierReviews\"><span>Supplier Reviews<\/span><\/a><\/li>\n\t\t<li class=\"active\"><a href=\"/services/ThePipeWorks\"><span>Pipe Works Custom Fabrication&trade;<\/span><\/a><\/li>\n\t<\/ul>\n<\/div>"
        }],
        "mainContent": [
            {
                "@name": "Main Text",
                "@type": "ContentPageMainText",
                "content": "<p>We value our suppliers and your opinions.  We acknowledge that we are only as good as our manufacturers and schedule supplier reviews to ensure that we provide you with the highest quality of products at competitive pricing.<\/p>\n\n<p>We regularly review our manufacturers to ensure you receive:<\/p>\n<p>&bull; The highest product quality<br />\n&bull; Lowest supply chain costs<br />\n&bull; Products that meet performance and compliance standards<br />\n&bull; On-time delivery<br />\n&bull; Proper packaging<br />\n&bull; Error-free shipments<br />\n&bull; Quality service<br />\n&bull; Timely backorder receipt<br />\n&bull; Competitive pricing<br />\n&bull; Overall reliability<\/p>\n"
            },
            {
                "@name": "Contact Us Form - Services Pages",
                "@type": "ServicesContactMain",
                "closeText": "Close",
                "confirmationText": "Thank you. Your request has been sent.",
                "triggerLinkText": "Click here to request additional information."
            }
        ],
        "footerContent": [{
            "ruleLimit": "1",
            "@name": "Footer Content Slot",
            "templateTypes": ["FooterContent"],
            "templateIds": [],
            "@type": "ContentSlotFooter",
            "contentPaths": ["/content/Shared/Footers"]
        }]
    }
}