{
    "@description": "${template.description}",
    "@group": "Navigation",
    "ecr:createDate": "2018-02-14T10:06:33.837-06:00",
    "@thumbnailUrl": "thumbnail.jpg",
    "ecr:type": "template",
    "locales": {},
    "typeInfo": {
        "dimensionName": {"@propertyType": "String"},
        "dimensionId": {"@propertyType": "String"},
        "sort": {"@propertyType": "String"},
        "showMoreLink": {"@propertyType": "Boolean"},
        "moreLinkText": {"@propertyType": "String"},
        "lessLinkText": {"@propertyType": "String"},
        "numRefinements": {"@propertyType": "String"},
        "refNumberToDisplay": {"@propertyType": "String"},
        "boostRefinements": {"@propertyType": "List"},
        "buryRefinements": {"@propertyType": "List"},
        "tooltip": {"@propertyType": "String"}
    },
    "defaultContentItem": {
        "lessLinkText": "Show Fewer...",
        "numRefinements": "10",
        "buryRefinements": [],
        "@name": "Dimension Navigation",
        "refNumberToDisplay": "200",
        "dimensionId": "",
        "moreLinkText": "Show More...",
        "boostRefinements": [],
        "tooltip": "",
        "sort": "default",
        "showMoreLink": false,
        "dimensionName": ""
    },
    "editorPanel": {
        "editor": "editors/DefaultEditorPanel",
        "children": [
            {
                "editor": "GroupLabel",
                "label": "${group.order.label}"
            },
            {
                "editor": "editors/ChoiceEditor",
                "propertyName": "sort",
                "label": "${property.sort.label}",
                "choice": [
                    {
                        "label": "${property.sort.default.label}",
                        "value": "default"
                    },
                    {
                        "label": "${property.sort.static.label}",
                        "value": "static"
                    },
                    {
                        "label": "${property.sort.dynRank.label}",
                        "value": "dynRank"
                    }
                ]
            },
            {
                "editor": "GroupLabel",
                "label": "${group.size.label}"
            },
            {
                "editor": "editors/NumericStepperEditor",
                "propertyName": "numRefinements",
                "maxValue": 10000,
                "label": "${property.numRefinements.label}",
                "enabled": true
            },
            {
                "editor": "GroupLabel",
                "label": "${group.maxdisplay.label}"
            },
            {
                "editor": "editors/NumericStepperEditor",
                "propertyName": "refNumberToDisplay",
                "maxValue": 10000,
                "label": "${property.numRefinements.label}",
                "enabled": true
            },
            {
                "editor": "GroupLabel",
                "label": "${group.moreLink.label}"
            },
            {
                "editor": "editors/BooleanEditor",
                "propertyName": "showMoreLink",
                "label": "${property.showMoreLink.label}",
                "enabled": true
            }
        ]
    }
}