{
    "ecr:lastModifiedBy": "admin",
    "ecr:lastModified": "2016-06-04T13:51:06.769-05:00",
    "contentType": "MainContent",
    "ecr:createDate": "2016-06-21T11:19:11.467-05:00",
    "ecr:type": "content-collection-folder"
}