{
    "@description": "${template.description}",
    "@group": "Navigation",
    "ecr:createDate": "2018-02-14T10:06:35.743-06:00",
    "@thumbnailUrl": "thumbnail.jpg",
    "ecr:type": "template",
    "locales": {},
    "typeInfo": {
        "dimensionName": {"@propertyType": "String"},
        "dimensionId": {"@propertyType": "String"},
        "sort": {"@propertyType": "String"},
        "showMoreLink": {"@propertyType": "Boolean"},
        "moreLinkText": {"@propertyType": "String"},
        "lessLinkText": {"@propertyType": "String"},
        "numRefinements": {"@propertyType": "String"},
        "maxNumRefinements": {"@propertyType": "String"},
        "boostRefinements": {"@propertyType": "List"},
        "buryRefinements": {"@propertyType": "List"}
    },
    "defaultContentItem": {
        "lessLinkText": "Show Fewer...",
        "numRefinements": "10",
        "buryRefinements": [],
        "@name": "Dimension Navigation",
        "dimensionId": "",
        "moreLinkText": "Show More...",
        "boostRefinements": [],
        "maxNumRefinements": "200",
        "sort": "default",
        "showMoreLink": false,
        "dimensionName": ""
    },
    "editorPanel": {
        "editor": "editors/DefaultEditorPanel",
        "children": [
            {
                "editor": "editors/DimensionSelectorEditor",
                "idProperty": "dimensionId",
                "propertyName": "dimensionName",
                "label": "${property.dimensionName.label}",
                "enabled": true
            },
            {
                "editor": "GroupLabel",
                "label": "${group.order.label}"
            },
            {
                "editor": "editors/ChoiceEditor",
                "propertyName": "sort",
                "label": "${property.sort.label}",
                "choice": [
                    {
                        "label": "${property.sort.default.label}",
                        "value": "default"
                    },
                    {
                        "label": "${property.sort.static.label}",
                        "value": "static"
                    },
                    {
                        "label": "${property.sort.dynRank.label}",
                        "value": "dynRank"
                    }
                ]
            },
            {
                "editor": "editors/BoostBuryEditor",
                "buryProperty": "buryRefinements",
                "propertyName": "boostRefinements",
                "label": "${property.boostBury.label}",
                "dimensionIdProperty": "dimensionId",
                "enabled": true
            },
            {
                "editor": "GroupLabel",
                "label": "${group.size.label}"
            },
            {
                "editor": "editors/NumericStepperEditor",
                "propertyName": "numRefinements",
                "maxValue": 10000,
                "label": "${property.numRefinements.label}",
                "enabled": true
            },
            {
                "editor": "GroupLabel",
                "label": "${group.moreLink.label}"
            },
            {
                "editor": "editors/BooleanEditor",
                "propertyName": "showMoreLink",
                "label": "${property.showMoreLink.label}",
                "enabled": true
            },
            {
                "editor": "editors/StringEditor",
                "propertyName": "moreLinkText",
                "label": "${property.moreLinkText.label}",
                "enabled": true
            },
            {
                "editor": "editors/StringEditor",
                "propertyName": "lessLinkText",
                "label": "${property.lessLinkText.label}",
                "enabled": true
            },
            {
                "editor": "editors/NumericStepperEditor",
                "propertyName": "maxNumRefinements",
                "maxValue": 100000,
                "label": "${property.maxNumRefinements.label}",
                "enabled": true
            }
        ]
    }
}