{
    "@description": "${template.description}",
    "@group": "MainContent",
    "ecr:createDate": "2018-02-14T10:06:35.170-06:00",
    "@thumbnailUrl": "thumbnail.png",
    "ecr:type": "template",
    "locales": {},
    "typeInfo": {
        "boostStrata": {"@propertyType": "List"},
        "buryStrata": {"@propertyType": "List"},
        "sortOption": {"@propertyType": "Item"},
		"relRankMatchMode": {"@propertyType": "String"},
        "relRankStrategy": {"@propertyType": "String"},
        "recordsPerPage": {"@propertyType": "String"},
        "ZeroResultsContent": {
            "@propertyType": "ContentItem",
            "@group": "MainContent"
        },
        "viewType": {"@propertyType": "String"}
    },
    "defaultContentItem": {
        "buryStrata": [],
        "@name": "Results List",
        "boostStrata": [],
		"relRankMatchMode": "PARTIAL",
        "relRankStrategy": "static(product.defaultSort,ascending),nterms,maxfield,exact",
        "viewType": "full",
        "recordsPerPage": "16",
        "sortOption": {
            "@class": "com.endeca.infront.navigation.model.SortOption",
            "label": "Repository Id",
            "sorts": [{
                "@class": "com.endeca.infront.navigation.model.SortSpec",
                "key": "product.defaultSort",
                "descending": "false"
            }]
        },
        "ZeroResultsContent": {}
    },
    "editorPanel": {
        "editor": "editors/DefaultEditorPanel",
        "children": [
            {
                "editor": "editors/NumericStepperEditor",
                "minValue": 10,
                "propertyName": "recordsPerPage",
                "maxValue": 100,
                "label": "${property.recordsPerPage.label}"
            },
            {
                "editor": "editors/BoostBuryRecordEditor",
                "buryProperty": "buryStrata",
                "propertyName": "boostStrata",
                "label": "${property.boostBury.label}"
            },
            {
                "editor": "GroupLabel",
                "label": "${group.searchResultSettings.label}"
            },
            {
                "editor": "editors/ChoiceEditor",
                "propertyName": "relRankStrategy",
                "label": "${property.relRankStrategy.label}",
                "choice": [
                    {
                        "label": "${property.relRankStrategy.first.label}",
                        "value": "first"
                    },
                    {
                        "label": "${property.relRankStrategy.frequency.label}",
                        "value": "freq"
                    },
                    {
                        "label": "Item #",
                        "value": "static(product.displayName,ascending),nterms,maxfield,exact"
                    },
                    {
                        "label": "Repository Id",
                        "value": "static(product.defaultSort,ascending),nterms,maxfield,exact"
                    },
                    {
                        "label": "${property.relRankStrategy.retail.label}",
                        "value": "nterms(considerFieldRanks),maxfield,glom,exact(considerFieldRanks)"
                    },
                    {
                        "label": "${property.relRankStrategy.retailNoGlom.label}",
                        "value": "nterms(considerFieldRanks),maxfield,exact(considerFieldRanks)"
                    }
                ]
            },
            {
                "editor": "GroupLabel",
                "label": "${group.navigationResultSettings.label}"
            },
            {
                "editor": "editors/SortEditor",
                "propertyName": "sortOption",
                "label": "${property.sortOption.label}",
                "SortOption": [
                    {
                        "@class": "com.endeca.infront.navigation.model.SortOption",
                        "label": "Repository Id",
                        "sorts": [{
                            "@class": "com.endeca.infront.navigation.model.SortSpec",
                            "key": "product.defaultSort",
                            "descending": "false"
                        }]
                    },
                    {
                        "@class": "com.endeca.infront.navigation.model.SortOption",
                        "label": "Item #",
                        "sorts": [{
                            "@class": "com.endeca.infront.navigation.model.SortSpec",
                            "key": "product.displayName",
                            "descending": "false"
                        }]
                    },
                    {
                        "@class": "com.endeca.infront.navigation.model.SortOption",
                        "label": "Mfg #",
                        "sorts": [{
                            "@class": "com.endeca.infront.navigation.model.SortSpec",
                            "key": "product.pricesvc_mfr_ucc_num",
                            "descending": "false"
                        }]
                    },
                    {
                        "@class": "com.endeca.infront.navigation.model.SortOption",
                        "label": "UPC #",
                        "sorts": [{
                            "@class": "com.endeca.infront.navigation.model.SortSpec",
                            "key": "product.pricesvc_upc",
                            "descending": "false"
                        }]
                    },
                    {
                        "@class": "com.endeca.infront.navigation.model.SortOption",
                        "label": "${property.sortOption.default.label}",
                        "sorts": []
                    }
                ]
            },
            {
                "editor": "editors/ChoiceEditor",
                "propertyName": "viewType",
                "label": "View Type",
                "choice": [
                    {
                        "label": "Full",
                        "value": "full"
                    },
                    {
                        "label": "Carousel",
                        "value": "carousel"
                    }
                ]
            }
        ]
    }
}