{
    "ecr:lastModifiedBy": "admin",
    "ecr:lastModified": "2018-01-24T11:51:07.916Z",
    "contentType": "Page",
    "ecr:createDate": "2018-01-24T05:51:07.916-06:00",
    "ecr:type": "content-collection-folder"
}