{
    "@description": "${template.description}",
    "@group": "Page",
    "ecr:createDate": "2018-02-14T10:06:34.279-06:00",
    "@thumbnailUrl": "thumbnail.png",
    "ecr:type": "template",
    "locales": {},
    "typeInfo": {
        "title": {"@propertyType": "String"},
        "metaKeywords": {"@propertyType": "String"},
        "metaDescription": {"@propertyType": "String"},
        "headerContent": {
            "@propertyType": "ContentItemList",
            "@group": "HeaderContent"
        },
        "mainContent": {
            "@propertyType": "ContentItemList",
            "@group": "MainContent"
        },
        "homepageMobilePromo": {
            "maxContentItems": 3,
            "@propertyType": "ContentItemList",
            "@group": "PromoSlide"
        },
        "footerContent": {
            "@propertyType": "ContentItemList",
            "@group": "FooterContent"
        },
        "isHomePage": {"@propertyType": "Boolean"}
    },
    "defaultContentItem": {
        "isHomePage": false,
        "headerContent": [],
        "@name": "Full Width Page",
        "metaKeywords": "",
        "mainContent": [],
        "homepageMobilePromo": [],
        "title": "",
        "metaDescription": "",
        "footerContent": []
    },
    "editorPanel": {
        "editor": "editors/DefaultEditorPanel",
        "children": [
            {
                "editor": "GroupLabel",
                "label": "${group.metadata.label}"
            },
            {
                "editor": "editors/StringEditor",
                "propertyName": "title",
                "label": "${property.title.label}",
                "enabled": true
            },
            {
                "editor": "editors/StringEditor",
                "propertyName": "metaKeywords",
                "label": "${property.metaKeywords.label}",
                "enabled": true,
                "height": 72
            },
            {
                "editor": "editors/StringEditor",
                "propertyName": "metaDescription",
                "label": "${property.metaDescription.label}",
                "enabled": true,
                "height": 72
            },
            {
                "editor": "editors/BooleanEditor",
                "propertyName": "isHomePage",
                "label": "${property.ishomepage.label}",
                "enabled": true
            }
        ]
    }
}