{
    "workflowNote": "",
    "userSegments": [],
    "workflowState": "ACTIVE",
    "ecr:lastModifiedBy": "JHarrell",
    "ecr:lastModified": "2018-02-07T16:01:45.612-06:00",
    "startTime": "",
    "endTime": "",
    "priority": 10,
    "templateId": "ContentPage",
    "previewable": true,
    "ecr:createDate": "2016-06-21T11:19:11.583-05:00",
    "ecr:type": "content-item",
    "triggers": [{"exactLocation": false}],
    "contentItem": {
        "showSharePageButton": true,
        "@name": "Content Page",
        "showPrintPageButton": true,
        "pageDisplayName": "Flambeau River Papers",
        "@type": "ContentPage",
        "title": "Flambeau River Papers",
        "metaDescription": "",
        "headerContent": [{
            "ruleLimit": "1",
            "@name": "Header Content Slot",
            "templateTypes": ["HeaderContent"],
            "templateIds": [],
            "@type": "ContentSlotHeader",
            "contentPaths": ["/content/Shared/Headers"]
        }],
        "breadcrumbs": {
            "@name": "Static Content Breadcrumbs",
            "parentDisplayTitle": "Case Studies",
            "@type": "StaticContentBreadcrumbs",
            "parentPath": "/case-studies"
        },
        "secondaryContent": [{
            "@name": "Sidebar Text",
            "@type": "ContentPageSidebarText",
            "content": "<div class=\"sidebar-menu\">\n                        <ul class=\"sidebar-nav\" id=\"collapseSidebar\" style=\"height: auto;\">\n                            <li><a href=\"/video-library\">Video Library<\/a><\/li>\n                            <li><a href=\"/locations/locations.jsp\">Locations<\/a><\/li>\n                            <li><a href=\"/news-events\">News and Events<\/a><\/li>\n                            <li class=\"active\"><a href=\"/case-studies\">Case Studies<\/a><\/li>\n                            <li><a href=\"/testimonials\">Testimonials<\/a><\/li>\n                            <li><a href=\"/affiliations\">Affiliations<\/a><\/li>\n                            <li><a href=\"/regional-managers\">Regional Managers<\/a><\/li>\n                            <li><a href=\"/price-lists\">Price Lists<\/a><\/li>\n                        <\/ul>\n                    <\/div>"
        }],
        "mainContent": [{
            "@name": "Main Text",
            "@type": "ContentPageMainText",
            "content": "<div class=\"row\">\n                                <div class=\"col-xs-12\">\n                                    <article class=\"case-study-detail\">\n                                        <img class=\"img-responsive\" src=\"https://espy.columbiapipe.com/webdata/CPSimages/case-studies/Case_study_0004_Flambea_River_Papers.jpg\" alt=\"\">\n                                        <h2>Problem<\/h2>\n                                        <p>Columbia Pipe customer Flambeau River Papers in Park Falls Wisconsin replaced the head box on a paper machine.  From that point on, the machine was running 200-300 feet per minute slower.  At this speed the mill was at a breakeven point and even the slightest process issue put them in the red.  They determined that the problem was the hose supplying pulp stock to the paper machine.  They contacted Columbia to help solve the issue. <\/p>\n                                        <h2>Solution<\/h2>\n                                        <p>Columbia experts met with their supplier, Capital Rubber, to identify a solution.   It was determined that a 2\u201d EPDM rubber reinforced hose with a smooth in side wall might solve the problem.\n A sample hose for testing was immediately shipped to Flambeau who was pleased with the solution and immediately ordered 2,000 feet. Columbia expedited delivery of the order, understanding the urgency of Flambeau\u2019s need to reduce costs as quickly as possible.\n However, upon inspection of the delivered product, Flambeau identified an issue with half of the hose supplied.  Columbia again responded quickly, contacting the manufacturer to expedite the replacement hose. The Columbia Pipe inside rep stayed on top of the shipment to make sure it shipped on time and tracked them until delivered to the mill.\n<\/p>\n                                        <h2>Value<\/h2>\n                                        <p>The paper machine is now running 100 feet per minute faster and Flambeau\u2019s mill is making money again. \nFlambeau has been able to remain competitive and pick up additional business as a result\nFlambeau is in the process of working with Columbia Pipe to find additional cost savings opportunities\n<\/p>\n                                        <h2>Testimonial<\/h2>\n                                        <blockquote>\n                                            <p>\"Due to a variety of circumstances in May, 2015 we were in urgent need of a large amount of a specific hose for our large paper machine.  We contacted several vendors to send samples of hoses that met the specification we needed.  When all the hoses were reviewed we decided to use Columbia as the vendor.  Dean and his staff did an excellent job getting the hose we needed to us in a timely fashion, however due the amount of hose needed we received hose from 2 different factories, half of the hoses would not work due to a product code inside the hose.  We were in a bind.  Again, Columbia came through in a very timely fashion to get us the correct hose.  Since installing the hose the machine has performed very well.  Thanks to Dean and Denise at Columbia for all their help and professionalism.\"<\/p>\n                                            <footer>Bill Hilgart, Paper Machine Maintenance Supervisor<\/footer>\n                                        <\/blockquote>\n                                    <\/article>\n                                <\/div>\n                            <\/div>"
        }],
        "footerContent": [{
            "ruleLimit": "1",
            "@name": "Footer Content Slot",
            "templateTypes": ["FooterContent"],
            "templateIds": [],
            "@type": "ContentSlotFooter",
            "contentPaths": ["/content/Shared/Footers"]
        }]
    }
}