{
    "@description": "${template.description}",
    "@group": "HeaderLink",
    "ecr:createDate": "2018-02-14T10:06:34.432-06:00",
    "@thumbnailUrl": "thumbnail.png",
    "ecr:type": "template",
    "locales": {},
    "typeInfo": {
        "navLinkType": {"@propertyType": "String"},
        "navLinkText": {"@propertyType": "String"},
        "navLinkURL": {"@propertyType": "String"}
    },
    "defaultContentItem": {
        "@name": "Header Navigation Link",
        "navLinkText": "",
        "navLinkType": "",
        "navLinkURL": ""
    },
    "editorPanel": {
        "editor": "editors/DefaultEditorPanel",
        "children": [
            {
                "editor": "editors/ChoiceEditor",
                "propertyName": "navLinkType",
                "label": "Type",
                "choice": [
                    {
                        "label": "Services",
                        "value": "Services"
                    },
                    {
                        "label": "Catalog",
                        "value": "Catalog"
                    }
                ]
            },
            {
                "editor": "editors/StringEditor",
                "propertyName": "navLinkText",
                "label": "Text"
            },
            {
                "editor": "editors/StringEditor",
                "propertyName": "navLinkURL",
                "label": "URL"
            }
        ]
    }
}