{
    "@description": "${template.description}",
    "@group": "SecondaryContent",
    "ecr:createDate": "2018-02-14T10:06:36.124-06:00",
    "@thumbnailUrl": "thumbnail.png",
    "ecr:type": "template",
    "locales": {},
    "typeInfo": {
        "numExpanded": {"@propertyType": "String"},
        "navigation": {
            "@propertyType": "ContentItemList",
            "@group": "Navigation"
        }
    },
    "defaultContentItem": {
        "numExpanded": "2",
        "navigation": [],
        "@name": "Navigation Container"
    },
    "editorPanel": {
        "editor": "editors/DefaultEditorPanel",
        "children": [
            {
                "editor": "editors/NumericStepperEditor",
                "propertyName": "numExpanded",
                "maxValue": 10000,
                "label": "${property.numExpanded.label}",
                "enabled": true
            },
            {
                "editor": "editors/GuidedNavigationEditor",
                "propertyName": "navigation",
                "contentItemMapping": {
                    "Property": [
                        {
                            "dimensionProperty": "endeca:name",
                            "name": "dimensionName"
                        },
                        {
                            "dimensionProperty": "endeca:identifier",
                            "name": "dimensionId"
                        }
                    ],
                    "Name": [
                        {"dimensionProperty": "display_name"},
                        {"dimensionProperty": "endeca:name"}
                    ]
                }
            }
        ]
    }
}