{
    "@description": "${template.description}",
    "@group": "SecondaryContent",
    "ecr:createDate": "2018-02-14T10:06:36.100-06:00",
    "@thumbnailUrl": "thumbnail.png",
    "ecr:type": "template",
    "locales": {},
    "typeInfo": {"content": {"@propertyType": "String"}},
    "defaultContentItem": {
        "@name": "Rich Text",
        "content": ""
    },
    "editorPanel": {
        "editor": "editors/DefaultEditorPanel",
        "children": [
            {
                "editor": "GroupLabel",
                "label": "${group.contents.label}"
            },
            {
                "toolbar": "[             { name: 'document',    items : [ 'Source'] },                 { name: 'clipboard',   items : [ 'PasteText','PasteFromWord','-','Undo','Redo' ] },                 { name: 'insert',      items : [ 'Table','HorizontalRule','SpecialChar'] },                 { name: 'paragraph',   items : [ 'NumberedList','BulletedList','-','Outdent','Indent','-','JustifyLeft','JustifyCenter','JustifyRight','JustifyBlock' ] },                 { name: 'links',       items : [ 'Link','Unlink','Anchor' ] },                 '/',                 { name: 'basicstyles', items : [ 'Bold','Italic','Underline','Strike','Subscript','Superscript' ] },                 { name: 'styles',      items : [ 'Styles','Format','Font','FontSize' ] },                 { name: 'colors',      items : [ 'TextColor'] }         ]",
                "editor": "editors/RichTextEditor",
                "propertyName": "content",
                "label": "${property.content.label}",
                "enabled": true,
                "height": 200
            }
        ]
    }
}