{
    "@description": "${template.description}",
    "@group": "MainContent",
    "ecr:createDate": "2018-02-14T10:06:35.217-06:00",
    "@thumbnailUrl": "thumbnail.png",
    "ecr:type": "template",
    "locales": {},
    "typeInfo": {},
    "defaultContentItem": {"@name": "Search Listing Title"},
    "editorPanel": {
        "editor": "editors/DefaultEditorPanel",
        "children": []
    }
}