{
    "@description": "${template.description}",
    "@group": "ContentPageMain",
    "ecr:createDate": "2018-02-14T10:06:35.765-06:00",
    "@thumbnailUrl": "thumbnail.png",
    "ecr:type": "template",
    "locales": {},
    "typeInfo": {
        "headingText": {"@propertyType": "String"},
        "step1Content": {"@propertyType": "String"},
        "step2Content": {"@propertyType": "String"},
        "step3Content": {"@propertyType": "String"},
        "nextStepContent": {"@propertyType": "String"},
        "downloadButtonLabel": {"@propertyType": "String"},
        "pdfUrl": {"@propertyType": "String"}
    },
    "defaultContentItem": {
        "step2Content": "<p>Print application.<\/p><p><i class=\"fa fa-print\"><\/i><\/p>",
        "pdfUrl": "",
        "@name": "Request Account Form",
        "headingText": "To request a Columbia Pipe account, follow these steps.",
        "downloadButtonLabel": "Download Application",
        "step1Content": "<p>Download application.<\/p><p><i class=\"fa fa-file-text-o\"><\/i><\/p>",
        "step3Content": "<p>Fill out the application and return it to us.<\/p><p>Scan and e-mail: <a href=\"mailto:cps-srvc@columbiapipe.com\">cps-srvc@columbiapipe.com<\/a><br/><strong>OR<\/strong><br />Fax: 773-927-8415<\/p>",
        "nextStepContent": "<p>We'll review your application and, if approved, get you set up in our system promptly and notify you by email with your login credentials.<\/p>"
    },
    "editorPanel": {
        "editor": "editors/DefaultEditorPanel",
        "children": [
            {
                "editor": "GroupLabel",
                "label": "${group.contents.label}"
            },
            {
                "editor": "editors/StringEditor",
                "propertyName": "headingText",
                "label": "${property.headingText.label}",
                "enabled": true,
                "height": 72
            },
            {
                "editor": "editors/StringEditor",
                "propertyName": "step1Content",
                "label": "${property.step1Content.label}",
                "enabled": true,
                "height": 216
            },
            {
                "editor": "editors/StringEditor",
                "propertyName": "step2Content",
                "label": "${property.step2Content.label}",
                "enabled": true,
                "height": 216
            },
            {
                "editor": "editors/StringEditor",
                "propertyName": "step3Content",
                "label": "${property.step3Content.label}",
                "enabled": true,
                "height": 216
            },
            {
                "editor": "editors/StringEditor",
                "propertyName": "nextStepContent",
                "label": "${property.nextStepContent.label}",
                "enabled": true,
                "height": 216
            },
            {
                "editor": "editors/StringEditor",
                "propertyName": "pdfUrl",
                "label": "${property.pdfUrl.label}",
                "enabled": true,
                "height": 72
            },
            {
                "editor": "editors/StringEditor",
                "propertyName": "downloadButtonLabel",
                "label": "${property.downloadButtonLabel.label}",
                "enabled": true,
                "height": 72
            }
        ]
    }
}