{
    "workflowNote": "",
    "workflowState": "INACTIVE",
    "ecr:lastModifiedBy": "admin",
    "ecr:lastModified": "2016-02-29T11:20:43.529-06:00",
    "startTime": "",
    "endTime": "",
    "priority": 10,
    "previewable": false,
    "ecr:createDate": "2016-04-07T06:20:03.926-04:00",
    "ecr:type": "content-item",
    "triggers": [{"exactLocation": true}],
    "contentItem": {
        "isHomePage": false,
        "@name": "Full Width Page",
        "metaKeywords": "",
        "@type": "FullWidthPage",
        "title": "",
        "metaDescription": "",
        "footerContent": [],
        "headerContent": [{
            "ruleLimit": "1",
            "@name": "Header Content Slot",
            "templateTypes": ["HeaderContent"],
            "templateIds": [],
            "@type": "ContentSlotHeader",
            "contentPaths": ["/content/Shared/Headers"]
        }],
        "mainContent": [{
            "@name": "Promotional Content",
            "@type": "HomePromotionalContent",
            "promoBanners": [
                {
                    "useRandom": false,
                    "@name": "BottomRight",
                    "@type": "PromotionalContentBannerTargeter",
                    "componentPath": "/HomePageTargeters/homePageBannerBottomRight",
                    "type": "Home Page Banner",
                    "itemCount": "1"
                },
                {
                    "useRandom": false,
                    "@name": "TopRight",
                    "@type": "PromotionalContentBannerTargeter",
                    "componentPath": "/HomePageTargeters/homePageBannerTopRight",
                    "type": "Home Page Banner",
                    "itemCount": "1"
                }
            ],
            "promoCarousel": [{
                "useRandom": false,
                "@name": "Promotional Items BCC Targeter",
                "@type": "PromotionalBCCMedia",
                "componentPath": "/HomePageTargeters/homePageBannerLeft",
                "type": "Home Page Carousel",
                "itemCount": "3"
            }]
        }]
    }
}