{
    "workflowNote": "",
    "userSegments": [],
    "workflowState": "ACTIVE",
    "ecr:lastModifiedBy": "admin",
    "ecr:lastModified": "2017-12-19T07:01:34.832-06:00",
    "startTime": "",
    "endTime": "",
    "priority": 10,
    "templateId": "RecentlyViewedSpotlight",
    "ecr:createDate": "2017-01-19T09:16:17.020-06:00",
    "ecr:type": "content-item",
    "triggers": [{"exactLocation": false}],
    "contentItem": {
        "@name": "Recently Viewed Spotlight",
        "maxNumRecords": "10",
        "@type": "RecentlyViewedSpotlight",
        "seeAllLinkText": "",
        "showSeeAllLink": false,
        "title": "Featured Items",
        "recordSelection": {
            "@class": "com.endeca.infront.cartridge.RecordSpotlightSelection",
            "filterState": {
                "@class": "com.endeca.infront.navigation.model.FilterState",
                "featuredRecords": [
                    "1004",
                    "8313",
                    "523247",
                    "665013",
                    "83257"
                ]
            }
        }
    }
}